Robot,1,Jamie! Jamie! We have to leave the moon!
Jamie,1,What? Why? Are the robots coming here?
Robot,1,"No, they don’t care about this stupid rock. But their technology is creating dangerously intense electromagnetic fields!"
Robot,1,If we don’t get to another planet you’ll be irradiated and turn to mush!
Jamie,1,"Argh, ok, but we don’t have enough chemical propellant to get us there. I’ll need to build a fusion reactor to power our journey."
Jamie,1,I need to route heavy water through the molecular filters to the tokamak.