[gd_scene load_steps=7 format=2]

[ext_resource path="res://assets/dialog/jamie.png" type="Texture" id=1]
[ext_resource path="res://assets/dialog/robot.png" type="Texture" id=2]
[ext_resource path="res://assets/fonts/Comfortaa-Light.ttf" type="DynamicFontData" id=3]
[ext_resource path="res://ui/TitleScreen.gd" type="Script" id=4]

[sub_resource type="DynamicFont" id=1]
size = 64
font_data = ExtResource( 3 )

[sub_resource type="DynamicFont" id=2]
size = 32
font_data = ExtResource( 3 )

[node name="TitleScreen" type="Node2D"]
script = ExtResource( 4 )

[node name="VBoxContainer" type="VBoxContainer" parent="."]
anchor_right = 1.0
anchor_bottom = 1.0
margin_top = 40.0
margin_right = 960.0
margin_bottom = 540.0
custom_constants/separation = 30
__meta__ = {
"_edit_use_anchors_": false
}

[node name="Label" type="Label" parent="VBoxContainer"]
margin_right = 960.0
margin_bottom = 72.0
custom_fonts/font = SubResource( 1 )
custom_colors/font_color = Color( 0.980392, 0.772549, 0.317647, 1 )
text = "Jamie's Jam"
align = 1
__meta__ = {
"_edit_use_anchors_": false
}

[node name="Label2" type="Label" parent="VBoxContainer"]
margin_top = 102.0
margin_right = 960.0
margin_bottom = 139.0
custom_fonts/font = SubResource( 2 )
custom_colors/font_color = Color( 0.8, 0.8, 0.8, 1 )
text = "Click or press a key to start"
align = 1
__meta__ = {
"_edit_use_anchors_": false
}

[node name="Jamie" type="Sprite" parent="."]
modulate = Color( 0, 0.627451, 0, 1 )
position = Vector2( 20, 170 )
scale = Vector2( 0.7, 0.7 )
texture = ExtResource( 1 )
centered = false
hframes = 2

[node name="Robot" type="Sprite" parent="."]
modulate = Color( 0.117647, 0.615686, 0.615686, 1 )
position = Vector2( 590, 140 )
scale = Vector2( 0.8, 0.8 )
texture = ExtResource( 2 )
centered = false
hframes = 2
